02-1_Ti60_OV5640_LCD-HDMI_1080P60/bilinear/la0_waveform.vcd
#0 $dumpon
$date today $end
$timescale 1 ns $end
$scope module top $end
$var wire 1 0 u_HDMI_IMG_GEN/i_8row_empty $end
$var wire 9 1 u_HDMI_IMG_GEN/i_8row_h $end
$var wire 3 2 u_HDMI_IMG_GEN/i_8row_id $end
$var wire 1 3 u_HDMI_IMG_GEN/i_bram_rvld $end
$var wire 32 4 u_HDMI_IMG_GEN/i_ch0_rdata $end
$var wire 32 5 u_HDMI_IMG_GEN/i_ch1_rdata $end
$var wire 15 6 u_HDMI_IMG_GEN/i_fix_h $end
$var wire 1 7 u_HDMI_IMG_GEN/i_fix_h_empty $end
$var wire 1 8 u_HDMI_IMG_GEN/i_fix_h_vld $end
$var wire 1 9 u_HDMI_IMG_GEN/i_pixel_re $end
$var wire 11 a u_HDMI_IMG_GEN/i_rate_coe $end
$var wire 16 b u_HDMI_IMG_GEN/i_roi_bw $end
$var wire 16 c u_HDMI_IMG_GEN/i_roi_ew $end
$var wire 1 d u_HDMI_IMG_GEN/o_8row_re $end
$var wire 1 e u_HDMI_IMG_GEN/o_bram_re $end
$var wire 12 f u_HDMI_IMG_GEN/o_ch0_raddr $end
$var wire 12 10 u_HDMI_IMG_GEN/o_ch1_raddr $end
$var wire 1 11 u_HDMI_IMG_GEN/o_fix_h_re $end
$var wire 24 12 u_HDMI_IMG_GEN/o_pixel_rgb $end
$var wire 1 13 u_HDMI_IMG_GEN/r_4pixel_vld $end
$var wire 1 14 u_HDMI_IMG_GEN/r_8row_id_vld $end
$var wire 1 15 u_HDMI_IMG_GEN/r_8row_rreq $end
$var wire 3 16 u_HDMI_IMG_GEN/r_bram_re $end
$var wire 2 17 u_HDMI_IMG_GEN/r_ch0_id $end
$var wire 2 18 u_HDMI_IMG_GEN/r_ch1_id $end
$var wire 8 19 u_HDMI_IMG_GEN/r_debug_data $end
$var wire 8 1a u_HDMI_IMG_GEN/r_dn_b0 $end
$var wire 8 1b u_HDMI_IMG_GEN/r_dn_b1 $end
$var wire 8 1c u_HDMI_IMG_GEN/r_dn_g0 $end
$var wire 8 1d u_HDMI_IMG_GEN/r_dn_g1 $end
$var wire 3 1e u_HDMI_IMG_GEN/r_dn_id $end
$var wire 8 1f u_HDMI_IMG_GEN/r_dn_r0 $end
$var wire 8 20 u_HDMI_IMG_GEN/r_dn_r1 $end
$var wire 1 21 u_HDMI_IMG_GEN/r_dn_vld $end
$var wire 1 22 u_HDMI_IMG_GEN/r_fix_h_vld $end
$var wire 5 23 u_HDMI_IMG_GEN/r_frac_h $end
$var wire 5 24 u_HDMI_IMG_GEN/r_frac_w $end
$var wire 5 25 u_HDMI_IMG_GEN/r_frac_w_d0 $end
$var wire 5 26 u_HDMI_IMG_GEN/r_frac_w_d1 $end
$var wire 5 27 u_HDMI_IMG_GEN/r_frac_w_d2 $end
$var wire 11 28 u_HDMI_IMG_GEN/r_hdmi_w $end
$var wire 11 29 u_HDMI_IMG_GEN/r_img_w $end
$var wire 9 2a u_HDMI_IMG_GEN/r_int_h $end
$var wire 10 2b u_HDMI_IMG_GEN/r_int_w $end
$var wire 10 2c u_HDMI_IMG_GEN/r_int_w1 $end
$var wire 4 2d u_HDMI_IMG_GEN/r_last_state $end
$var wire 1 2e u_HDMI_IMG_GEN/r_module_busy $end
$var wire 11 2f u_HDMI_IMG_GEN/r_o_h $end
$var wire 11 30 u_HDMI_IMG_GEN/r_o_w $end
$var wire 16 31 u_HDMI_IMG_GEN/r_org_w $end
$var wire 1 32 u_HDMI_IMG_GEN/r_pixel2_en $end
$var wire 3 33 u_HDMI_IMG_GEN/r_pixel2_flag $end
$var wire 24 34 u_HDMI_IMG_GEN/r_rgb_wdata $end
$var wire 1 35 u_HDMI_IMG_GEN/r_rgb_wdone $end
$var wire 1 36 u_HDMI_IMG_GEN/r_rgb_we $end
$var wire 4 37 u_HDMI_IMG_GEN/r_state $end
$var wire 32 38 u_HDMI_IMG_GEN/r_sum $end
$var wire 8 39 u_HDMI_IMG_GEN/r_up_b0 $end
$var wire 8 3a u_HDMI_IMG_GEN/r_up_b1 $end
$var wire 8 3b u_HDMI_IMG_GEN/r_up_g0 $end
$var wire 8 3c u_HDMI_IMG_GEN/r_up_g1 $end
$var wire 3 3d u_HDMI_IMG_GEN/r_up_id $end
$var wire 8 3e u_HDMI_IMG_GEN/r_up_r0 $end
$var wire 8 3f u_HDMI_IMG_GEN/r_up_r1 $end
$var wire 4 40 u_HDMI_IMG_GEN/r_wait_cnt $end
$var wire 1 41 u_HDMI_IMG_GEN/r_wait_done $end
$var wire 1 42 u_HDMI_IMG_GEN/r_wr0_en $end
$var wire 11 43 u_HDMI_IMG_GEN/r_wr0_size $end
$var wire 1 44 u_HDMI_IMG_GEN/s_0_wdone $end
$var wire 1 45 u_HDMI_IMG_GEN/s_8row_check $end
$var wire 1 46 u_HDMI_IMG_GEN/s_8row_check_done $end
$var wire 8 47 u_HDMI_IMG_GEN/s_b $end
$var wire 10 48 u_HDMI_IMG_GEN/s_bram_raddr $end
$var wire 8 49 u_HDMI_IMG_GEN/s_g $end
$var wire 1 4a u_HDMI_IMG_GEN/s_hdmi_en $end
$var wire 8 4b u_HDMI_IMG_GEN/s_r $end
$var wire 10 4c u_HDMI_IMG_GEN/s_rgb_cnt $end
$var wire 1 4d u_HDMI_IMG_GEN/s_rgb_pfull $end
$var wire 1 4e u_HDMI_IMG_GEN/s_rgb_rlast $end
$var wire 1 4f u_HDMI_IMG_GEN/s_rgb_vld $end
$var wire 1 50 u_HDMI_IMG_GEN/s_rgb_wr $end
$var wire 1 51 u_HDMI_IMG_GEN/s_rgb_wr0 $end
$var wire 1 52 u_HDMI_IMG_GEN/s_wr0_en $end
$var wire 11 53 r_fix_rate $end
$upscope $end
$enddefinitions $end
#0
$dumpvars
00
b100001010 1
b010 2
03
b00000000010001100010000100101001 4
b00000000001110000001101000011100 5
b010000101001110 6
07
18
09
b00000001110 a
b0000000011110000 b
b0000011010001111 c
0d
0e
b010001111010 f
b010001111010 10
011
b000000000000000000000000 12
013
014
015
b000 16
b01 17
b01 18
b00000000 19
b00011100 1a
b00011100 1b
b00011010 1c
b00011010 1d
b011 1e
b00111000 1f
b00111000 20
121
022
b00000 23
b10100 24
b10100 25
b10100 26
b00110 27
b01000000110 28
b00100010110 29
b100001010 2a
b0001111001 2b
b0001111010 2c
b0100 2d
12e
b01001100000 2f
b01000000110 30
b0000111100110100 31
132
b111 33
b000000000000000000000000 34
035
036
b0100 37
b00000111001010101010110100101100 38
b00101001 39
b00101001 3a
b00100001 3b
b00100001 3c
b010 3d
b01000110 3e
b01000110 3f
b0000 40
041
042
b00000000000 43
044
045
046
b00101001 47
b0001111010 48
b00100001 49
04a
b01000110 4b
b1000000110 4c
04d
04e
04f
050
051
052
b00001001000 53
$end
#17
19
#24
b1000000101 4c
#26
b1000000100 4c
#28
b1000000011 4c
#30
b1000000010 4c
#32
b1000000001 4c
#34
b1000000000 4c
#36
b0111111111 4c
#37
14a
150
#38
b001 16
b01000000111 28
032
04a
b0111111110 4c
#39
b011 16
b00100010111 29
132
b110 33
14a
#40
1e
b111 16
b01000001000 28
b0000111101000010 31
032
b101 33
04a
b0111111101 4c
#41
13
b00000000001110110001101000100001 4
b00000000001101100001111000011110 5
b00010 24
b00100011000 29
b0001111010 2b
132
b010 33
14a
#42
b010001111011 f
b010001111011 10
113
b00011110 1b
b00011110 1d
b00110110 20
021
b00010 25
b10100 27
b01000001001 28
b0001111011 2c
b0000111101010000 31
032
b101 33
b00100001 3a
b00011010 3c
b00111011 3f
b0001111011 48
04a
b0111111100 4c
#43
b00000000001101000001100100011110 4
b00000000001101000010001000100000 5
b010001111010 f
b010001111010 10
013
b00011110 1a
b00011110 1c
b00110110 1f
121
b10000 24
b00010 26
b00100011001 29
132
b010 33
b00100001 39
b00011010 3b
b00111011 3e
b0001111010 48
14a
#44
b00000000001110110001101000100001 4
b00000000001101100001111000011110 5
b010001111011 f
b010001111011 10
113
b00100000 1b
b00100010 1d
b00110100 20
021
b10000 25
b00010 27
b01000001010 28
b0000111101011110 31
032
b101 33
b00011110 3a
b00011001 3c
b00110100 3f
b0001111011 48
04a
b0111111011 4c
#45
b00000000001101000001100100011110 4
b00000000001101000010001000100000 5
b010001111010 f
b010001111010 10
013
121
b11110 24
b10000 26
b00100011010 29
132
b010 33
b0001111010 48
14a
#46
b00000000001110110001101000100001 4
b00000000001101100001111000011110 5
b010001111011 f
b010001111011 10
113
021
b11110 25
b10000 27
b01000001011 28
b0000111101101100 31
032
b101 33
b0001111011 48
04a
b0111111010 4c
#47
b00000000001101000001100100011110 4
b00000000001101000010001000100000 5
013
121
b01100 24
b11110 26
b00100011011 29
b0001111011 2b
132
b010 33
14a
#48
b010001111100 f
b010001111100 10
113
021
b01100 25
b11110 27
b01000001100 28
b0001111100 2c
b0000111101111010 31
032
b101 33
b00100100 47
b0001111100 48
b00011100 49
04a
b00111111 4b
b0111111001 4c
14f
#49
b00000000001100110001111100100001 4
b00000000001100000010000000100000 5
b010001111011 f
b010001111011 10
013
b00111111 19
b00100000 1a
b00100010 1c
b00110100 1f
121
b11010 24
b01100 26
b00100011100 29
132
b010 33
b001111110001110000100100 34
136
b00011110 39
b00011001 3b
b00110100 3e
b00100001 47
b0001111011 48
b00011010 49
14a
b00111011 4b
04f
#50
b00000000001101000001100100011110 4
b00000000001101000010001000100000 5
b010001111100 f
b010001111100 10
113
b00000000 19
b00100000 1d
b00110000 20
021
b11010 25
b01100 27
b01000001101 28
b01000000111 30
b0000111110001000 31
032
b101 33
b000000000000000000000000 34
036
b00000111001010101010110101101011 38
b00100001 3a
b00011111 3c
b00110011 3f
b00100000 47
b0001111100 48
b00011001 49
04a
b00111010 4b
14f
#51
b00000000001100110001111100100001 4
b00000000001100000010000000100000 5
013
b00111010 19
121
b01000 24
b11010 26
b00100011101 29
b0001111100 2b
132
b010 33
b001110100001100100100000 34
136
14a
04f
#52
b010001111101 f
b010001111101 10
113
b00000000 19
021
b01000 25
b11010 27
b01000001110 28
b0001111101 2c
b01000001000 30
b0000111110010110 31
032
b101 33
b000000000000000000000000 34
036
b00000111001010101010110110100101 38
b00011111 47
b0001111101 48
04a
b00110111 4b
14f
#53
b00000000001101110010001100100101 4
b00000000001011110001111100011111 5
b010001111100 f
b010001111100 10
013
b00110111 19
b00100000 1c
b00110000 1f
121
b10110 24
b01000 26
b00100011110 29
132
b010 33
b001101110001100100011111 34
136
b00100001 39
b00011111 3b
b00110011 3e
b0001111100 48
14a
04f
#54
b00000000001100110001111100100001 4
b00000000001100000010000000100000 5
b010001111101 f
b010001111101 10
113
b00000000 19
b00011111 1b
b00011111 1d
b00101111 20
021
b10110 25
b01000 27
b01000001111 28
b01000001001 30
b0000111110100100 31
032
b101 33
b000000000000000000000000 34
036
b00000111001010101010110111011100 38
b00100101 3a
b00100011 3c
b00110111 3f
b00011110 47
b0001111101 48
04a
b00110100 4b
14f
#55
b00000000001101110010001100100101 4
b00000000001011110001111100011111 5
013
b00110100 19
121
b00100 24
b10110 26
b00100011111 29
b0001111101 2b
132
b010 33
b001101000001100100011110 34
136
14a
04f
#56
b010001111110 f
b010001111110 10
113
b00000000 19
021
b00100 25
b10110 27
b01000010000 28
b0001111110 2c
b01000001010 30
b0000111110110010 31
032
b101 33
b000000000000000000000000 34
036
b00000111001010101010111000010000 38
b00011111 47
b0001111110 48
b00011011 49
04a
b00110011 4b
14f
#57
b00000000001110110010010100100111 4
b00000000001101010010001000100100 5
b010001111101 f
b010001111101 10
013
b00110011 19
b00011111 1a
b00011111 1c
b00101111 1f
121
b10010 24
b00100 26
b00100100000 29
132
b010 33
b001100110001101100011111 34
136
b00100101 39
b00100011 3b
b00110111 3e
b0001111101 48
14a
04f
#58
b00000000001101110010001100100101 4
b00000000001011110001111100011111 5
b010001111110 f
b010001111110 10
113
b00000000 19
b00100100 1b
b00100010 1d
b00110101 20
021
b10010 25
b00100 27
b01000010001 28
b01000001011 30
b0000111111000000 31
032
b101 33
b000000000000000000000000 34
036
b00000111001010101010111001000011 38
b00100111 3a
b00100101 3c
b00111011 3f
b00100000 47
b0001111110 48
b00011101 49
04a
14f
#59
b00000000001110110010010100100111 4
b00000000001101010010001000100100 5
013
b00110011 19
121
b00000 24
b10010 26
b00100100001 29
b0001111110 2b
132
b010 33
b001100110001110100100000 34
136
b00100001 47
b00011111 49
14a
04f
#60
b010001111111 f
b010001111111 10
113
b00000000 19
021
b00000 25
b10010 27
b01000010010 28
b0001111111 2c
b01000001100 30
b0000111111001110 31
032
b101 33
b000000000000000000000000 34
036
b00000111001010101010111001110110 38
b00100010 47
b0001111111 48
b00100000 49
04a
b00110100 4b
14f
#61
b00000000001110100010000100100100 4
b00000000001110010010010100100111 5
b010001111110 f
b010001111110 10
013
b00110100 19
b00100100 1a
b00100010 1c
b00110101 1f
121
b01110 24
b00000 26
b00100100010 29
132
b010 33
b001101000010000000100010 34
136
b00100111 39
b00100101 3b
b00111011 3e
b0001111110 48
14a
04f
#62
b00000000001110110010010100100111 4
b00000000001101010010001000100100 5
b010001111111 f
b010001111111 10
113
b00000000 19
b00100111 1b
b00100101 1d
b00111001 20
021
b01110 25
b00000 27
b01000010011 28
b01000001101 30
b0000111111011100 31
032
b101 33
b000000000000000000000000 34
036
b00000111001010101010111010101010 38
b00100100 3a
b00100001 3c
b00111010 3f
b00100011 47
b0001111111 48
b00100001 49
04a
b00110101 4b
14f
#63
b00000000001110100010000100100100 4
b00000000001110010010010100100111 5
b010001111110 f
b010001111110 10
013
b00110101 19
121
b11100 24
b01110 26
b00100100011 29
132
b010 33
b001101010010000100100011 34
136
b00100101 47
b0001111110 48
b00100011 49
14a
b00110111 4b
04f
#64
b00000000001110110010010100100111 4
b00000000001101010010001000100100 5
b010001111111 f
b010001111111 10
113
b00000000 19
021
b11100 25
b01110 27
b01000010100 28
b01000001110 30
b0000111111101010 31
032
b101 33
b000000000000000000000000 34
036
b00000111001010101010111011011111 38
b0001111111 48
04a
14f
#65
b00000000001110100010000100100100 4
b00000000001110010010010100100111 5
013
b00110111 19
121
b01010 24
b11100 26
b00100100100 29
b0001111111 2b
132
b010 33
b001101110010001100100101 34
136
14a
04f
#66
b010010000000 f
b010010000000 10
113
b00000000 19
021
b01010 25
b11100 27
b01000010101 28
b0010000000 2c
b01000001111 30
b0000111111111000 31
032
b101 33
b000000000000000000000000 34
036
b00000111001010101010111100010110 38
b00100110 47
b0010000000 48
b00100100 49
04a
b00111001 4b
14f
#67
b00000000001101000001101000011101 4
b00000000001110000010010000100110 5
b010001111111 f
b010001111111 10
013
b00111001 19
b00100111 1a
b00100101 1c
b00111001 1f
121
b11000 24
b01010 26
b00100100101 29
132
b010 33
b001110010010010000100110 34
136
b00100100 39
b00100001 3b
b00111010 3e
b00100111 47
b0001111111 48
b00100101 49
14a
b00111011 4b
04f
#68
b00000000001110100010000100100100 4
b00000000001110010010010100100111 5
b010010000000 f
b010010000000 10
113
b00000000 19
b00100110 1b
b00100100 1d
b00111000 20
021
b11000 25
b01010 27
b01000010110 28
b01000010000 30
b0001000000000110 31
032
b101 33
b000000000000000000000000 34
036
b00000111001010101010111101001111 38
b00011101 3a
b00011010 3c
b00110100 3f
b0010000000 48
04a
14f
#69
b00000000001101000001101000011101 4
b00000000001110000010010000100110 5
013
b00111011 19
121
b00110 24
b11000 26
b00100100110 29
b0010000000 2b
132
b010 33
b001110110010010100100111 34
136
14a
04f
#70
b010010000001 f
b010010000001 10
113
b00000000 19
021
b00110 25
b11000 27
b01000010111 28
b0010000001 2c
b01000010001 30
b0001000000010100 31
032
b101 33
b000000000000000000000000 34
036
b00000111001010101010111110001010 38
b00100101 47
b0010000001 48
b00100011 49
04a
b00111010 4b
14f
#71
b00000000011011000011001100100000 4
b00000000001101110010001000100001 5
b010010000000 f
b010010000000 10
013
b00111010 19
b00100110 1a
b00100100 1c
b00111000 1f
121
b10100 24
b00110 26
b00100100111 29
132
b010 33
b001110100010001100100101 34
136
b00011101 39
b00011010 3b
b00110100 3e
b0010000000 48
14a
04f
#72
b00000000001101000001101000011101 4
b00000000001110000010010000100110 5
b010010000001 f
b010010000001 10
113
b00000000 19
b00100001 1b
b00100010 1d
b00110111 20
021
b10100 25
b00110 27
b01000011000 28
b01000010010 30
b0001000000100010 31
032
b101 33
b000000000000000000000000 34
036
b00000111001010101010111111000100 38
b00100000 3a
b00110011 3c
b01101100 3f
b00100100 47
b0010000001 48
b00100001 49
04a
14f
#73
b00000000011011000011001100100000 4
b00000000001101110010001000100001 5
013
b00111010 19
121
b00010 24
b10100 26
b00100101000 29
b0010000001 2b
132
b010 33
b001110100010000100100100 34
136
14a
04f
#74
b010010000010 f
b010010000010 10
113
b00000000 19
021
b00010 25
b10100 27
b01000011001 28
b0010000010 2c
b01000010011 30
b0001000000110000 31
032
b101 33
b000000000000000000000000 34
036
b00000111001010101010111111111110 38
b00100001 47
b0010000010 48
b00011110 49
04a
b00111000 4b
14f
#75
b00000000100001000101110001011010 4
b00000000011001110011111100111101 5
b010010000001 f
b010010000001 10
013
b00111000 19
b00100001 1a
b00100010 1c
b00110111 1f
121
b10000 24
b00010 26
b00100101001 29
132
b010 33
b001110000001111000100001 34
136
b00100000 39
b00110011 3b
b01101100 3e
b0010000001 48
14a
04f
#76
b00000000011011000011001100100000 4
b00000000001101110010001000100001 5
b010010000010 f
b010010000010 10
113
b00000000 19
b00111101 1b
b00111111 1d
b01100111 20
021
b10000 25
b00010 27
b01000011010 28
b01000010100 30
b0001000000111110 31
032
b101 33
b000000000000000000000000 34
036
b00000111001010101011000000110110 38
b01011010 3a
b01011100 3c
b10000100 3f
b00011110 47
b0010000010 48
b00011011 49
04a
b00110101 4b
14f
#77
b00000000100001000101110001011010 4
b00000000011001110011111100111101 5
b010010000001 f
b010010000001 10
013
b00110101 19
121
b11110 24
b10000 26
b00100101010 29
132
b010 33
b001101010001101100011110 34
136
b00011101 47
b0010000001 48
b00011010 49
14a
b00110100 4b
04f
#78
b00000000011011000011001100100000 4
b00000000001101110010001000100001 5
b010010000010 f
b010010000010 10
113
b00000000 19
021
b11110 25
b10000 27
b01000011011 28
b01000010101 30
b0001000001001100 31
032
b101 33
b000000000000000000000000 34
036
b00000111001010101011000001101011 38
b0010000010 48
b00011110 49
04a
b00111110 4b
14f
#79
b00000000100001000101110001011010 4
b00000000011001110011111100111101 5
013
b00111110 19
121
b01100 24
b11110 26
b00100101011 29
b0010000010 2b
132
b010 33
b001111100001111000011101 34
136
14a
04f
#80
b010010000011 f
b010010000011 10
113
b00000000 19
021
b01100 25
b11110 27
b01000011100 28
b0010000011 2c
b01000010110 30
b0001000001011010 31
032
b101 33
b000000000000000000000000 34
036
b00000111001010101011000010101001 38
b00011110 47
b0010000011 48
b00101001 49
04a
b01010111 4b
14f
#81
b00000000011100110101010001100100 4
b00000000100011110101110001011001 5
b010010000010 f
b010010000010 10
013
b01010111 19
b00111101 1a
b00111111 1c
b01100111 1f
121
b11010 24
b01100 26
b00100101100 29
132
b010 33
b010101110010100100011110 34
136
b01011010 39
b01011100 3b
b10000100 3e
b00100000 47
b0010000010 48
b00110011 49
14a
b01101100 4b
04f
#82
b00000000100001000101110001011010 4
b00000000011001110011111100111101 5
b010010000011 f
b010010000011 10
113
b00000000 19
b01011001 1b
b01011100 1d
b10001111 20
021
b11010 25
b01100 27
b01000011101 28
b01000010111 30
b0001000001101000 31
032
b101 33
b000000000000000000000000 34
036
b00000111001010101011000100000000 38
b01100100 3a
b01010100 3c
b01110011 3f
b00100011 47
b0010000011 48
b00110101 49
04a
b01101101 4b
14f
#83
b00000000011100110101010001100100 4
b00000000100011110101110001011001 5
013
b01101101 19
121
b01000 24
b11010 26
b00100101101 29
b0010000011 2b
132
b010 33
b011011010011010100100011 34
136
14a
04f
#84
b010010000100 f
b010010000100 10
113
b00000000 19
021
b01000 25
b11010 27
b01000011110 28
b0010000100 2c
b01000011000 30
b0001000001110110 31
032
b101 33
b000000000000000000000000 34
036
b00000111001010101011000101101101 38
b00111101 47
b0010000100 48
b01000111 49
04a
b01111000 4b
14f
#85
b00000000011011000100010101011010 4
b00000000100110000101110101100001 5
b010010000011 f
b010010000011 10
013
b01111000 19
b01011001 1a
b01011100 1c
b10001111 1f
121
b10110 24
b01000 26
b00100101110 29
132
b010 33
b011110000100011100111101 34
136
b01100100 39
b01010100 3b
b01110011 3e
b0010000011 48
14a
04f
#86
b00000000011100110101010001100100 4
b00000000100011110101110001011001 5
b010010000100 f
b010010000100 10
113
b00000000 19
b01100001 1b
b01011101 1d
b10011000 20
021
b10110 25
b01000 27
b01000011111 28
b01000011001 30
b0001000010000100 31
032
b101 33
b000000000000000000000000 34
036
b00000111001010101011000111100101 38
b01011010 3a
b01000101 3c
b01101100 3f
b01010110 47
b0010000100 48
b01011001 49
04a
b10000010 4b
14f
#87
b00000000011011000100010101011010 4
b00000000100110000101110101100001 5
013
b10000010 19
121
b00100 24
b10110 26
b00100101111 29
b0010000100 2b
132
b010 33
b100000100101100101010110 34
136
b01011010 47
b01011100 49
14a
b10000100 4b
04f
#88
b010010000101 f
b010010000101 10
113
b00000000 19
021
b00100 25
b10110 27
b01000100000 28
b0010000101 2c
b01000011010 30
b0001000010010010 31
032
b101 33
b000000000000000000000000 34
036
b00000111001010101011001001100111 38
b01011101 47
b0010000101 48
b01011001 49
04a
b01111101 4b
14f
#89
b00000000100000010101001101100000 4
b00000000101001110110000001100110 5
b010010000100 f
b010010000100 10
013
b01111101 19
b01100001 1a
b01011101 1c
b10011000 1f
121
b10010 24
b00100 26
b00100110000 29
132
b010 33
b011111010101100101011101 34
136
b01011010 39
b01000101 3b
b01101100 3e
b0010000100 48
14a
04f
#90
b00000000011011000100010101011010 4
b00000000100110000101110101100001 5
b010010000101 f
b010010000101 10
113
b00000000 19
b01100110 1b
b01100000 1d
b10100111 20
021
b10010 25
b00100 27
b01000100001 28
b01000011011 30
b0001000010100000 31
032
b101 33
b000000000000000000000000 34
036
b00000111001010101011001011100100 38
b01100000 3a
b01010011 3c
b10000001 3f
b01100010 47
b0010000101 48
b01010101 49
04a
b01110110 4b
14f
#91
b00000000100000010101001101100000 4
b00000000101001110110000001100110 5
013
b01110110 19
121
b00000 24
b10010 26
b00100110001 29
b0010000101 2b
132
b010 33
b011101100101010101100010 34
136
b01100100 47
b01010100 49
14a
b01110011 4b
04f
#92
b010010000110 f
b010010000110 10
113
b00000000 19
021
b00000 25
b10010 27
b01000100010 28
b0010000110 2c
b01000011100 30
b0001000010101110 31
032
b101 33
b000000000000000000000000 34
036
b00000111001010101011001101011010 38
b01100001 47
b0010000110 48
b01010000 49
04a
b01110001 4b
14f
#93
b00000000101000000111000001110000 4
b00000000101101010110010101100110 5
b010010000101 f
b010010000101 10
013
b01110001 19
b01100110 1a
b01100000 1c
b10100111 1f
121
b01110 24
b00000 26
b00100110010 29
132
b010 33
b011100010101000001100001 34
136
b01100000 39
b01010011 3b
b10000001 3e
b0010000101 48
14a
04f
#94
b00000000100000010101001101100000 4
b00000000101001110110000001100110 5
b010010000110 f
b010010000110 10
113
b00000000 19
b01100101 1d
b10110101 20
021
b01110 25
b00000 27
b01000100011 28
b01000011101 30
b0001000010111100 31
032
b101 33
b000000000000000000000000 34
036
b00000111001010101011001111001011 38
b01110000 3a
b01110000 3c
b10100000 3f
b01011101 47
b0010000110 48
b01001001 49
04a
b01101110 4b
14f
#95
b00000000101000000111000001110000 4
b00000000101101010110010101100110 5
b010010000101 f
b010010000101 10
013
b01101110 19
121
b11100 24
b01110 26
b00100110011 29
132
b010 33
b011011100100100101011101 34
136
b01011010 47
b0010000101 48
b01000101 49
14a
b01101100 4b
04f
#96
b00000000100000010101001101100000 4
b00000000101001110110000001100110 5
b010010000110 f
b010010000110 10
113
b00000000 19
021
b11100 25
b01110 27
b01000100100 28
b01000011110 30
b0001000011001010 31
032
b101 33
b000000000000000000000000 34
036
b00000111001010101011010000111001 38
b0010000110 48
b01000110 49
04a
b01101110 4b
14f
#97
b00000000101000000111000001110000 4
b00000000101101010110010101100110 5
013
b01101110 19
121
b01010 24
b11100 26
b00100110100 29
b0010000110 2b
132
b010 33
b011011100100011001011010 34
136
14a
04f
#98
b010010000111 f
b010010000111 10
113
b00000000 19
021
b01010 25
b11100 27
b01000100101 28
b0010000111 2c
b01000011111 30
b0001000011011000 31
032
b101 33
b000000000000000000000000 34
036
b00000111001010101011010010100111 38
b01011101 47
b0010000111 48
b01001100 49
04a
b01110111 4b
14f
#99
b00000000101010110110110101100000 4
b00000000101101010111010101101100 5
b010010000110 f
b010010000110 10
013
b01110111 19
b01100101 1c
b10110101 1f
121
b11000 24
b01010 26
b00100110101 29
132
b010 33
b011101110100110001011101 34
136
b01110000 39
b01110000 3b
b10100000 3e
b01100000 47
b0010000110 48
b01010011 49
14a
b10000001 4b
04f
#100
b00000000101000000111000001110000 4
b00000000101101010110010101100110 5
b010010000111 f
b010010000111 10
113
b00000000 19
b01101100 1b
b01110101 1d
021
b11000 25
b01010 27
b01000100110 28
b01000100000 30
b0001000011100110 31
032
b101 33
b000000000000000000000000 34
036
b00000111001010101011010100011110 38
b01100000 3a
b01101101 3c
b10101011 3f
b0010000111 48
04a
14f
#101
b00000000101010110110110101100000 4
b00000000101101010111010101101100 5
013
b10000001 19
121
b00110 24
b11000 26
b00100110110 29
b0010000111 2b
132
b010 33
b100000010101001101100000 34
136
14a
04f
#102
b010010001000 f
b010010001000 10
113
b00000000 19
021
b00110 25
b11000 27
b01000100111 28
b0010001000 2c
b01000100001 30
b0001000011110100 31
032
b101 33
b000000000000000000000000 34
036
b00000111001010101011010110011111 38
b01100111 47
b0010001000 48
b01011111 49
04a
b10001110 4b
14f
#103
b00000000101011110101101101000011 4
b00000000101000000111100001101100 5
b010010000111 f
b010010000111 10
013
b10001110 19
b01101100 1a
b01110101 1c
121
b10100 24
b00110 26
b00100110111 29
132
b010 33
b100011100101111101100111 34
136
b01100000 39
b01101101 3b
b10101011 3e
b0010000111 48
14a
04f
#104
b00000000101010110110110101100000 4
b00000000101101010111010101101100 5
b010010001000 f
b010010001000 10
113
b00000000 19
b01111000 1d
b10100000 20
021
b10100 25
b00110 27
b01000101000 28
b01000100010 30
b0001000100000010 31
032
b101 33
b000000000000000000000000 34
036
b00000111001010101011011000101101 38
b01000011 3a
b01011011 3c
b10101111 3f
b01101110 47
b0010001000 48
b01101100 49
04a
b10011100 4b
14f
#105
b00000000101011110101101101000011 4
b00000000101000000111100001101100 5
013
b10011100 19
121
b00010 24
b10100 26
b00100111000 29
b0010001000 2b
132
b010 33
b100111000110110001101110 34
136
b01110000 47
b01110000 49
14a
b10100000 4b
04f
#106
b010010001001 f
b010010001001 10
113
b00000000 19
021
b00010 25
b10100 27
b01000101001 28
b0010001001 2c
b01000100011 30
b0001000100010000 31
032
b101 33
b000000000000000000000000 34
036
b00000111001010101011011011001001 38
b01101011 47
b0010001001 48
b01101111 49
04a
b10100011 4b
14f
#107
b00000000101011110110100000111100 4
b00000000101011010110000001011000 5
b010010001000 f
b010010001000 10
013
b10100011 19
b01111000 1c
b10100000 1f
121
b10000 24
b00010 26
b00100111001 29
132
b010 33
b101000110110111101101011 34
136
b01000011 39
b01011011 3b
b10101111 3e
b0010001000 48
14a
04f
#108
b00000000101011110101101101000011 4
b00000000101000000111100001101100 5
b010010001001 f
b010010001001 10
113
b00000000 19
b01011000 1b
b01100000 1d
b10101101 20
021
b10000 25
b00010 27
b01000101010 28
b01000100100 30
b0001000100011110 31
032
b101 33
b000000000000000000000000 34
036
b00000111001010101011011101101100 38
b00111100 3a
b01101000 3c
b01100100 47
b0010001001 48
b01101101 49
04a
b10101000 4b
14f
#109
b00000000101011110110100000111100 4
b00000000101011010110000001011000 5
b010010001000 f
b010010001000 10
013
b10101000 19
121
b11110 24
b10000 26
b00100111010 29
132
b010 33
b101010000110110101100100 34
136
b01100000 47
b0010001000 48
14a
b10101011 4b
04f
#110
b00000000101011110101101101000011 4
b00000000101000000111100001101100 5
b010010001001 f
b010010001001 10
113
b00000000 19
021
b11110 25
b10000 27
b01000101011 28
b01000100101 30
b0001000100101100 31
032
b101 33
b000000000000000000000000 34
036
b00000111001010101011100000010100 38
b01011010 47
b0010001001 48
b01101001 49
04a
14f
#111
b00000000101011110110100000111100 4
b00000000101011010110000001011000 5
013
b10101011 19
121
b01100 24
b11110 26
b00100111011 29
b0010001001 2b
132
b010 33
b101010110110100101011010 34
136
14a
04f
#112
b010010001010 f
b010010001010 10
113
b00000000 19
021
b01100 25
b11110 27
b01000101100 28
b0010001010 2c
b01000100110 30
b0001000100111010 31
032
b101 33
b000000000000000000000000 34
036
b00000111001010101011100010111111 38
b01001101 47
b0010001010 48
b01100001 49
04a
b10101101 4b
14f
#113
b00000000101100010110011101001010 4
b00000000101000100101111101001111 5
b010010001001 f
b010010001001 10
013
b10101101 19
b01011000 1a
b01100000 1c
b10101101 1f
121
b11010 24
b01100 26
b00100111100 29
132
b010 33
b101011010110000101001101 34
136
b00111100 39
b01101000 3b
b01000011 47
b0010001001 48
b01011011 49
14a
b10101111 4b
04f
#114
b00000000101011110110100000111100 4
b00000000101011010110000001011000 5
b010010001010 f
b010010001010 10
113
b00000000 19
b01001111 1b
b01011111 1d
b10100010 20
021
b11010 25
b01100 27
b01000101101 28
b01000100111 30
b0001000101001000 31
032
b101 33
b000000000000000000000000 34
036
b00000111001010101011100101101100 38
b01001010 3a
b01100111 3c
b10110001 3f
b01000010 47
b0010001010 48
04a
14f
